project data visualisation
…
# A tibble: 2 × 2
  delta_t     n
  <drtn>  <int>
1 1 days   1143
2 2 days      1

the day I watched no videos?

data |> mutate( delta_t = date[row_number()+1] - date) |> 
        drop_na() |> 
        arrange(desc(delta_t)) |>
        select(date, delta_t)

# A tibble: 46,783 × 2
   date       delta_t
   <date>     <drtn> 
 1 2020-08-27 2 days 
 2 2019-09-26 1 days 
 3 2019-09-27 1 days 
 4 2019-09-28 1 days 
 5 2019-09-29 1 days 
 6 2019-09-30 1 days 
 7 2019-10-01 1 days 
 8 2019-10-02 1 days 
 9 2019-10-03 1 days 
10 2019-10-04 1 days 
# … with 46,773 more rows
…
data |> select(title)

# A tibble: 46,784 × 1
   title                                                                       
   <chr>                                                                       
 1 Watched Trump Now ADMITS to Ukraine Biden Extortion                         
 2 Watched tagesschau 20:00 Uhr, 26.09.2019                                    
 3 Watched Energieprofessor Volker Quaschning (Teil 1) - Jung & Naiv: Folge 418
 4 Watched Klimaempfang 2019 Professor Harald Lesch                            
 5 Watched tagesthemen 22:15 Uhr, 26.09.2019                                   
 6 Watched tagesthemen 22:45 Uhr, 22.09.2019                                   
 7 Watched SHOCK: Biden Smear Was Trump PRECONDITION to Phone Call             
 8 Watched Bayesian Statistics with Hannah Fry                                 
 9 Watched Ian Malcolm explains Chaos theory (Jurassic Park)                   
10 Watched Chaos Theory: Double Pendulum                                       
# … with 46,774 more rows
